{
  "account": [
    {
      "id": "1",
      "userId": "2",
      "accountHolderName": "bhavani",
      "branchname": "Hyderabad",
      "balance": 49800,
      "accountNumber": "12345"
    },
    {
      "id": "2",
      "userId": "3",
      "accountHolderName": "swami",
      "branchname": "Hyderabad",
      "balance": 1200,
      "accountNumber": "12346"
    }
  ]
}